be964293b51c3863e63092a55411b6ebc0bf4f90 - karlopass
c0f09a44625c52ff047ca9da92f0a951421da182 - martpass
0e2a6662351e8a6b17c4cf3dfdf9216887148c24 - tinpass
5b196f2b04a3da764a1a5cb8098d7d8e5f3932f3 - andropass
24f40f8499afab976b45e4361334f52df1c98f32 - ivanpass
0d0eac84ac5267b9fdb32688f98a0fdccf4b5fdc - lukinasifra
2ca01b5e14fff3fb5ea249b9077df1bfc76e78fd - ivanna1212
76933ff77291367f7e184ac8a0c952ff08118522 - paula12
00607f436433b3f75d5e384cf36119a1d87c03c9 - helenana676
6b952f890ba1bcbad11c56e47236e29cb8919696 - miranmiro
ff131f23d97746d2fe29b358442c79c33833a42f - pperko
114648e4af40213f72ec8cb6bda1e0d8ead8341a - bobirobi